{
  "results": [
    {
      "created": 1446224396000,
      "rsvp_id": 1578107397,
      "member": {
        "name": "Paolo L.",
        "member_id": 182512797
      },
      "mtime": 1446224396000,
      "guests": 0,
      "group": {
        "created": 1446723985060,
        "group_lon": 9.1899995803833,
        "id": 8923782,
        "join_mode": "open",
        "urlname": "Python-Milano",
        "group_lat": 45.459999084472656
      },
      "event": {
        "id": "226276326",
        "event_url": "http://www.meetup.com/Python-Milano/events/226276326/",
        "name": "django+haystack+elasticsearch",
        "time": 1447351200000
      },
      "response": "yes",
      "venue": {
        "country": "it",
        "id": 23595637,
        "name": "StartMiUp - Copernico",
        "address_1": "Via Copernico, 38",
        "city": "Milano",
        "repinned": "False",
        "lon": 9.204074,
        "lat": 45.490528
      }
    },
    {
      "created": 1446225125000,
      "rsvp_id": 1578109192,
      "venue": {
        "country": "it",
        "id": 23595637,
        "name": "StartMiUp - Copernico",
        "address_1": "Via Copernico, 38",
        "city": "Milano",
        "repinned": "False",
        "lon": 9.204074,
        "lat": 45.490528
      },
      "mtime": 1446225125000,
      "guests": 0,
      "group": {
        "created": 1446723985060,
        "group_lon": 9.1899995803833,
        "id": 8923782,
        "join_mode": "open",
        "urlname": "Python-Milano",
        "group_lat": 45.459999084472656
      },
      "event": {
        "id": "226276326",
        "event_url": "http://www.meetup.com/Python-Milano/events/226276326/",
        "name": "django+haystack+elasticsearch",
        "time": 1447351200000
      },
      "response": "yes",
      "member_photo": {
        "photo_id": 247274034,
        "thumb_link": "http://photos2.meetupstatic.com/photos/member/3/6/d/2/thumb_247274034.jpeg",
        "highres_link": "http://photos2.meetupstatic.com/photos/member/3/6/d/2/highres_247274034.jpeg",
        "photo_link": "http://photos4.meetupstatic.com/photos/member/3/6/d/2/member_247274034.jpeg"
      },
      "member": {
        "name": "Giuseppe Saviano",
        "member_id": 188986075
      }
    },
    {
      "created": 1446219711000,
      "rsvp_id": 1578096648,
      "venue": {
        "country": "it",
        "id": 23595637,
        "name": "StartMiUp - Copernico",
        "address_1": "Via Copernico, 38",
        "city": "Milano",
        "repinned": "False",
        "lon": 9.204074,
        "lat": 45.490528
      },
      "mtime": 1446220361000,
      "guests": 0,
      "group": {
        "created": 1446723985060,
        "group_lon": 9.1899995803833,
        "id": 8923782,
        "join_mode": "open",
        "urlname": "Python-Milano",
        "group_lat": 45.459999084472656
      },
      "event": {
        "id": "226276326",
        "event_url": "http://www.meetup.com/Python-Milano/events/226276326/",
        "name": "django+haystack+elasticsearch",
        "time": 1447351200000
      },
      "response": "no",
      "member_photo": {
        "photo_id": 125619232,
        "thumb_link": "http://photos1.meetupstatic.com/photos/member/9/9/4/0/thumb_125619232.jpeg",
        "photo_link": "http://photos1.meetupstatic.com/photos/member/9/9/4/0/member_125619232.jpeg"
      },
      "member": {
        "name": "Alessio",
        "member_id": 3947469
      }
    },
    {
      "created": 1445697522000,
      "rsvp_id": 1577136653,
      "venue": {
        "country": "it",
        "id": 23595637,
        "name": "StartMiUp - Copernico",
        "address_1": "Via Copernico, 38",
        "city": "Milano",
        "repinned": "False",
        "lon": 9.204074,
        "lat": 45.490528
      },
      "mtime": 1445697522000,
      "guests": 0,
      "group": {
        "created": 1446723985060,
        "group_lon": 9.1899995803833,
        "id": 8923782,
        "join_mode": "open",
        "urlname": "Python-Milano",
        "group_lat": 45.459999084472656
      },
      "event": {
        "id": "226276326",
        "event_url": "http://www.meetup.com/Python-Milano/events/226276326/",
        "name": "django+haystack+elasticsearch",
        "time": 1447351200000
      },
      "response": "yes",
      "member_photo": {
        "photo_id": 246347562,
        "thumb_link": "http://photos2.meetupstatic.com/photos/member/b/9/c/a/thumb_246347562.jpeg",
        "highres_link": "http://photos4.meetupstatic.com/photos/member/b/9/c/a/highres_246347562.jpeg",
        "photo_link": "http://photos2.meetupstatic.com/photos/member/b/9/c/a/member_246347562.jpeg"
      },
      "member": {
        "name": "Alex Redaelli",
        "member_id": 38054822
      }
    },
    {
      "created": 1446278112000,
      "rsvp_id": 1578198036,
      "venue": {
        "country": "it",
        "id": 23595637,
        "name": "StartMiUp - Copernico",
        "address_1": "Via Copernico, 38",
        "city": "Milano",
        "repinned": "False",
        "lon": 9.204074,
        "lat": 45.490528
      },
      "mtime": 1446278112000,
      "guests": 0,
      "group": {
        "created": 1446723985060,
        "group_lon": 9.1899995803833,
        "id": 8923782,
        "join_mode": "open",
        "urlname": "Python-Milano",
        "group_lat": 45.459999084472656
      },
      "event": {
        "id": "226276326",
        "event_url": "http://www.meetup.com/Python-Milano/events/226276326/",
        "name": "django+haystack+elasticsearch",
        "time": 1447351200000
      },
      "response": "yes",
      "member_photo": {
        "photo_id": 244517406,
        "thumb_link": "http://photos3.meetupstatic.com/photos/member/4/3/f/e/thumb_244517406.jpeg",
        "highres_link": "http://photos3.meetupstatic.com/photos/member/4/3/f/e/highres_244517406.jpeg",
        "photo_link": "http://photos3.meetupstatic.com/photos/member/4/3/f/e/member_244517406.jpeg"
      },
      "member": {
        "name": "Eric Bonfadini",
        "member_id": 185016061
      }
    },
    {
      "created": 1446713579000,
      "rsvp_id": 1579035927,
      "member": {
        "name": "Denis Frezzato",
        "member_id": 183722049
      },
      "mtime": 1446713579000,
      "guests": 0,
      "group": {
        "created": 1446723985060,
        "group_lon": 9.1899995803833,
        "id": 8923782,
        "join_mode": "open",
        "urlname": "Python-Milano",
        "group_lat": 45.459999084472656
      },
      "event": {
        "id": "226276326",
        "event_url": "http://www.meetup.com/Python-Milano/events/226276326/",
        "name": "django+haystack+elasticsearch",
        "time": 1447351200000
      },
      "response": "yes",
      "venue": {
        "country": "it",
        "id": 23595637,
        "name": "StartMiUp - Copernico",
        "address_1": "Via Copernico, 38",
        "city": "Milano",
        "repinned": "False",
        "lon": 9.204074,
        "lat": 45.490528
      }
    },
    {
      "created": 1446455979000,
      "rsvp_id": 1578476314,
      "member": {
        "name": "Nicola Musatti",
        "member_id": 99467682
      },
      "mtime": 1446455979000,
      "guests": 0,
      "group": {
        "created": 1446723985060,
        "group_lon": 9.1899995803833,
        "id": 8923782,
        "join_mode": "open",
        "urlname": "Python-Milano",
        "group_lat": 45.459999084472656
      },
      "event": {
        "id": "226276326",
        "event_url": "http://www.meetup.com/Python-Milano/events/226276326/",
        "name": "django+haystack+elasticsearch",
        "time": 1447351200000
      },
      "response": "yes",
      "venue": {
        "country": "it",
        "id": 23595637,
        "name": "StartMiUp - Copernico",
        "address_1": "Via Copernico, 38",
        "city": "Milano",
        "repinned": "False",
        "lon": 9.204074,
        "lat": 45.490528
      }
    },
    {
      "created": 1445693163000,
      "rsvp_id": 1577129250,
      "venue": {
        "country": "it",
        "id": 23595637,
        "name": "StartMiUp - Copernico",
        "address_1": "Via Copernico, 38",
        "city": "Milano",
        "repinned": "False",
        "lon": 9.204074,
        "lat": 45.490528
      },
      "mtime": 1445693163000,
      "guests": 0,
      "group": {
        "created": 1446723985060,
        "group_lon": 9.1899995803833,
        "id": 8923782,
        "join_mode": "open",
        "urlname": "Python-Milano",
        "group_lat": 45.459999084472656
      },
      "event": {
        "id": "226276326",
        "event_url": "http://www.meetup.com/Python-Milano/events/226276326/",
        "name": "django+haystack+elasticsearch",
        "time": 1447351200000
      },
      "response": "yes",
      "member_photo": {
        "photo_id": 114664012,
        "thumb_link": "http://photos4.meetupstatic.com/photos/member/f/a/c/thumb_114664012.jpeg",
        "highres_link": "http://photos4.meetupstatic.com/photos/member/f/a/c/highres_114664012.jpeg",
        "photo_link": "http://photos2.meetupstatic.com/photos/member/f/a/c/member_114664012.jpeg"
      },
      "member": {
        "name": "Gleb",
        "member_id": 91691532
      }
    },
    {
      "created": 1446359867000,
      "rsvp_id": 1578308409,
      "venue": {
        "country": "it",
        "id": 23595637,
        "name": "StartMiUp - Copernico",
        "address_1": "Via Copernico, 38",
        "city": "Milano",
        "repinned": "False",
        "lon": 9.204074,
        "lat": 45.490528
      },
      "mtime": 1446359867000,
      "guests": 0,
      "group": {
        "created": 1446723985060,
        "group_lon": 9.1899995803833,
        "id": 8923782,
        "join_mode": "open",
        "urlname": "Python-Milano",
        "group_lat": 45.459999084472656
      },
      "event": {
        "id": "226276326",
        "event_url": "http://www.meetup.com/Python-Milano/events/226276326/",
        "name": "django+haystack+elasticsearch",
        "time": 1447351200000
      },
      "response": "yes",
      "member_photo": {
        "photo_id": 241740551,
        "thumb_link": "http://photos3.meetupstatic.com/photos/member/2/2/7/thumb_241740551.jpeg",
        "highres_link": "http://photos3.meetupstatic.com/photos/member/2/2/7/highres_241740551.jpeg",
        "photo_link": "http://photos3.meetupstatic.com/photos/member/2/2/7/member_241740551.jpeg"
      },
      "member": {
        "name": "Davide Gaudesi",
        "member_id": 174860402
      }
    },
    {
      "created": 1445689161000,
      "rsvp_id": 1577123403,
      "venue": {
        "country": "it",
        "id": 23595637,
        "name": "StartMiUp - Copernico",
        "address_1": "Via Copernico, 38",
        "city": "Milano",
        "repinned": "False",
        "lon": 9.204074,
        "lat": 45.490528
      },
      "mtime": 1445689161000,
      "guests": 0,
      "group": {
        "created": 1446723985060,
        "group_lon": 9.1899995803833,
        "id": 8923782,
        "join_mode": "open",
        "urlname": "Python-Milano",
        "group_lat": 45.459999084472656
      },
      "event": {
        "id": "226276326",
        "event_url": "http://www.meetup.com/Python-Milano/events/226276326/",
        "name": "django+haystack+elasticsearch",
        "time": 1447351200000
      },
      "response": "yes",
      "member_photo": {
        "photo_id": 92973172,
        "thumb_link": "http://photos4.meetupstatic.com/photos/member/8/1/9/4/thumb_92973172.jpeg",
        "photo_link": "http://photos2.meetupstatic.com/photos/member/8/1/9/4/member_92973172.jpeg"
      },
      "member": {
        "name": "Strappazzon 'Strap' Christian",
        "member_id": 77328892
      }
    },
    {
      "created": 1446456041000,
      "rsvp_id": 1578476374,
      "venue": {
        "country": "it",
        "id": 23595637,
        "name": "StartMiUp - Copernico",
        "address_1": "Via Copernico, 38",
        "city": "Milano",
        "repinned": "False",
        "lon": 9.204074,
        "lat": 45.490528
      },
      "mtime": 1446456041000,
      "guests": 0,
      "group": {
        "created": 1446723985060,
        "group_lon": 9.1899995803833,
        "id": 8923782,
        "join_mode": "open",
        "urlname": "Python-Milano",
        "group_lat": 45.459999084472656
      },
      "event": {
        "id": "226276326",
        "event_url": "http://www.meetup.com/Python-Milano/events/226276326/",
        "name": "django+haystack+elasticsearch",
        "time": 1447351200000
      },
      "response": "yes",
      "member_photo": {
        "photo_id": 147044742,
        "thumb_link": "http://photos4.meetupstatic.com/photos/member/a/e/c/6/thumb_147044742.jpeg",
        "highres_link": "http://photos2.meetupstatic.com/photos/member/a/e/c/6/highres_147044742.jpeg",
        "photo_link": "http://photos2.meetupstatic.com/photos/member/a/e/c/6/member_147044742.jpeg"
      },
      "member": {
        "name": "Raffaele Salmaso",
        "member_id": 110063862
      }
    },
    {
      "created": 1445874267000,
      "rsvp_id": 1577427291,
      "venue": {
        "country": "it",
        "id": 23595637,
        "name": "StartMiUp - Copernico",
        "address_1": "Via Copernico, 38",
        "city": "Milano",
        "repinned": "False",
        "lon": 9.204074,
        "lat": 45.490528
      },
      "mtime": 1445874267000,
      "guests": 0,
      "group": {
        "created": 1446723985060,
        "group_lon": 9.1899995803833,
        "id": 8923782,
        "join_mode": "open",
        "urlname": "Python-Milano",
        "group_lat": 45.459999084472656
      },
      "event": {
        "id": "226276326",
        "event_url": "http://www.meetup.com/Python-Milano/events/226276326/",
        "name": "django+haystack+elasticsearch",
        "time": 1447351200000
      },
      "response": "yes",
      "member_photo": {
        "photo_id": 187124772,
        "thumb_link": "http://photos2.meetupstatic.com/photos/member/a/e/e/4/thumb_187124772.jpeg",
        "photo_link": "http://photos2.meetupstatic.com/photos/member/a/e/e/4/member_187124772.jpeg"
      },
      "member": {
        "name": "Antonio Vangi",
        "member_id": 65780122
      }
    },
    {
      "created": 1446274898000,
      "rsvp_id": 1578195817,
      "venue": {
        "country": "it",
        "id": 23595637,
        "name": "StartMiUp - Copernico",
        "address_1": "Via Copernico, 38",
        "city": "Milano",
        "repinned": "False",
        "lon": 9.204074,
        "lat": 45.490528
      },
      "mtime": 1446274898000,
      "guests": 0,
      "group": {
        "created": 1446723985060,
        "group_lon": 9.1899995803833,
        "id": 8923782,
        "join_mode": "open",
        "urlname": "Python-Milano",
        "group_lat": 45.459999084472656
      },
      "event": {
        "id": "226276326",
        "event_url": "http://www.meetup.com/Python-Milano/events/226276326/",
        "name": "django+haystack+elasticsearch",
        "time": 1447351200000
      },
      "response": "yes",
      "member_photo": {
        "photo_id": 147039842,
        "thumb_link": "http://photos4.meetupstatic.com/photos/member/9/b/a/2/thumb_147039842.jpeg",
        "highres_link": "http://photos2.meetupstatic.com/photos/member/9/b/a/2/highres_147039842.jpeg",
        "photo_link": "http://photos2.meetupstatic.com/photos/member/9/b/a/2/member_147039842.jpeg"
      },
      "member": {
        "name": "Walter Traspadini",
        "member_id": 92020052
      }
    },
    {
      "created": 1446619216000,
      "rsvp_id": 1578847339,
      "venue": {
        "country": "it",
        "id": 23595637,
        "name": "StartMiUp - Copernico",
        "address_1": "Via Copernico, 38",
        "city": "Milano",
        "repinned": "False",
        "lon": 9.204074,
        "lat": 45.490528
      },
      "mtime": 1446619216000,
      "guests": 0,
      "group": {
        "created": 1446723985060,
        "group_lon": 9.1899995803833,
        "id": 8923782,
        "join_mode": "open",
        "urlname": "Python-Milano",
        "group_lat": 45.459999084472656
      },
      "event": {
        "id": "226276326",
        "event_url": "http://www.meetup.com/Python-Milano/events/226276326/",
        "name": "django+haystack+elasticsearch",
        "time": 1447351200000
      },
      "response": "yes",
      "member_photo": {
        "photo_id": 168055062,
        "thumb_link": "http://photos1.meetupstatic.com/photos/member/d/7/1/6/thumb_168055062.jpeg",
        "highres_link": "http://photos1.meetupstatic.com/photos/member/d/7/1/6/highres_168055062.jpeg",
        "photo_link": "http://photos1.meetupstatic.com/photos/member/d/7/1/6/member_168055062.jpeg"
      },
      "member": {
        "name": "emilio",
        "member_id": 116540112
      }
    },
    {
      "created": 1446220519000,
      "rsvp_id": 1578098573,
      "venue": {
        "country": "it",
        "id": 23595637,
        "name": "StartMiUp - Copernico",
        "address_1": "Via Copernico, 38",
        "city": "Milano",
        "repinned": "False",
        "lon": 9.204074,
        "lat": 45.490528
      },
      "mtime": 1446220519000,
      "guests": 0,
      "group": {
        "created": 1446723985060,
        "group_lon": 9.1899995803833,
        "id": 8923782,
        "join_mode": "open",
        "urlname": "Python-Milano",
        "group_lat": 45.459999084472656
      },
      "event": {
        "id": "226276326",
        "event_url": "http://www.meetup.com/Python-Milano/events/226276326/",
        "name": "django+haystack+elasticsearch",
        "time": 1447351200000
      },
      "response": "yes",
      "member_photo": {
        "photo_id": 247270526,
        "thumb_link": "http://photos2.meetupstatic.com/photos/member/2/9/1/e/thumb_247270526.jpeg",
        "highres_link": "http://photos2.meetupstatic.com/photos/member/2/9/1/e/highres_247270526.jpeg",
        "photo_link": "http://photos4.meetupstatic.com/photos/member/2/9/1/e/member_247270526.jpeg"
      },
      "member": {
        "name": "Ely Malki",
        "member_id": 186482021
      }
    },
    {
      "created": 1445708489000,
      "rsvp_id": 1577157270,
      "venue": {
        "country": "it",
        "id": 23595637,
        "name": "StartMiUp - Copernico",
        "address_1": "Via Copernico, 38",
        "city": "Milano",
        "repinned": "False",
        "lon": 9.204074,
        "lat": 45.490528
      },
      "mtime": 1445708489000,
      "guests": 0,
      "group": {
        "created": 1446723985060,
        "group_lon": 9.1899995803833,
        "id": 8923782,
        "join_mode": "open",
        "urlname": "Python-Milano",
        "group_lat": 45.459999084472656
      },
      "event": {
        "id": "226276326",
        "event_url": "http://www.meetup.com/Python-Milano/events/226276326/",
        "name": "django+haystack+elasticsearch",
        "time": 1447351200000
      },
      "response": "yes",
      "member_photo": {
        "photo_id": 126881242,
        "thumb_link": "http://photos4.meetupstatic.com/photos/member/a/1/1/a/thumb_126881242.jpeg",
        "photo_link": "http://photos2.meetupstatic.com/photos/member/a/1/1/a/member_126881242.jpeg"
      },
      "member": {
        "name": "Simone Zanza Picciani",
        "member_id": 99027442
      }
    },
    {
      "created": 1446220208000,
      "rsvp_id": 1578097814,
      "venue": {
        "country": "it",
        "id": 23595637,
        "name": "StartMiUp - Copernico",
        "address_1": "Via Copernico, 38",
        "city": "Milano",
        "repinned": "False",
        "lon": 9.204074,
        "lat": 45.490528
      },
      "mtime": 1446220208000,
      "guests": 0,
      "group": {
        "created": 1446723985060,
        "group_lon": 9.1899995803833,
        "id": 8923782,
        "join_mode": "open",
        "urlname": "Python-Milano",
        "group_lat": 45.459999084472656
      },
      "event": {
        "id": "226276326",
        "event_url": "http://www.meetup.com/Python-Milano/events/226276326/",
        "name": "django+haystack+elasticsearch",
        "time": 1447351200000
      },
      "response": "yes",
      "member_photo": {
        "photo_id": 119660612,
        "thumb_link": "http://photos1.meetupstatic.com/photos/member/5/0/8/4/thumb_119660612.jpeg",
        "photo_link": "http://photos3.meetupstatic.com/photos/member/5/0/8/4/member_119660612.jpeg"
      },
      "member": {
        "name": "Mauro Allegrini",
        "member_id": 94703462
      }
    },
    {
      "created": 1446273159000,
      "rsvp_id": 1578194597,
      "venue": {
        "country": "it",
        "id": 23595637,
        "name": "StartMiUp - Copernico",
        "address_1": "Via Copernico, 38",
        "city": "Milano",
        "repinned": "False",
        "lon": 9.204074,
        "lat": 45.490528
      },
      "mtime": 1446273159000,
      "guests": 0,
      "group": {
        "created": 1446723985060,
        "group_lon": 9.1899995803833,
        "id": 8923782,
        "join_mode": "open",
        "urlname": "Python-Milano",
        "group_lat": 45.459999084472656
      },
      "event": {
        "id": "226276326",
        "event_url": "http://www.meetup.com/Python-Milano/events/226276326/",
        "name": "django+haystack+elasticsearch",
        "time": 1447351200000
      },
      "response": "yes",
      "member_photo": {
        "photo_id": 188737852,
        "thumb_link": "http://photos2.meetupstatic.com/photos/member/9/3/d/c/thumb_188737852.jpeg",
        "photo_link": "http://photos4.meetupstatic.com/photos/member/9/3/d/c/member_188737852.jpeg"
      },
      "member": {
        "name": "Matteo Bruno",
        "member_id": 73018322
      }
    },
    {
      "created": 1445766910000,
      "rsvp_id": 1577233322,
      "venue": {
        "country": "it",
        "id": 23595637,
        "name": "StartMiUp - Copernico",
        "address_1": "Via Copernico, 38",
        "city": "Milano",
        "repinned": "False",
        "lon": 9.204074,
        "lat": 45.490528
      },
      "mtime": 1445766910000,
      "guests": 0,
      "group": {
        "created": 1446723985060,
        "group_lon": 9.1899995803833,
        "id": 8923782,
        "join_mode": "open",
        "urlname": "Python-Milano",
        "group_lat": 45.459999084472656
      },
      "event": {
        "id": "226276326",
        "event_url": "http://www.meetup.com/Python-Milano/events/226276326/",
        "name": "django+haystack+elasticsearch",
        "time": 1447351200000
      },
      "response": "yes",
      "member_photo": {
        "photo_id": 250438152,
        "thumb_link": "http://photos2.meetupstatic.com/photos/member/e/3/2/8/thumb_250438152.jpeg",
        "highres_link": "http://photos2.meetupstatic.com/photos/member/e/3/2/8/highres_250438152.jpeg",
        "photo_link": "http://photos2.meetupstatic.com/photos/member/e/3/2/8/member_250438152.jpeg"
      },
      "member": {
        "name": "Emanuele Casabona",
        "member_id": 193942737
      }
    },
    {
      "created": 1445953137000,
      "rsvp_id": 1577593273,
      "venue": {
        "country": "it",
        "id": 23595637,
        "name": "StartMiUp - Copernico",
        "address_1": "Via Copernico, 38",
        "city": "Milano",
        "repinned": "False",
        "lon": 9.204074,
        "lat": 45.490528
      },
      "mtime": 1445953137000,
      "guests": 0,
      "group": {
        "created": 1446723985060,
        "group_lon": 9.1899995803833,
        "id": 8923782,
        "join_mode": "open",
        "urlname": "Python-Milano",
        "group_lat": 45.459999084472656
      },
      "event": {
        "id": "226276326",
        "event_url": "http://www.meetup.com/Python-Milano/events/226276326/",
        "name": "django+haystack+elasticsearch",
        "time": 1447351200000
      },
      "response": "yes",
      "member_photo": {
        "photo_id": 241642458,
        "thumb_link": "http://photos1.meetupstatic.com/photos/member/5/7/b/a/thumb_241642458.jpeg",
        "highres_link": "http://photos1.meetupstatic.com/photos/member/5/7/b/a/highres_241642458.jpeg",
        "photo_link": "http://photos3.meetupstatic.com/photos/member/5/7/b/a/member_241642458.jpeg"
      },
      "member": {
        "name": "Leonardo Giordani",
        "member_id": 148618452
      }
    }
  ],
  "meta": {
    "count": 20,
    "description": "Query for Event RSVPs by event",
    "lat": "",
    "total_count": 24,
    "link": "https://api.meetup.com/2/rsvps",
    "id": "",
    "next": "https://api.meetup.com/2/rsvps?offset=1&format=json&sig=e3913a7a676b7182d48e3e990f2cc26c211bd5bd&event_id=226276326&photo-host=public&page=20&fields=&sig_id=99027442&order=event&desc=False",
    "updated": 1446713579000,
    "method": "RSVPs v2",
    "url": "https://api.meetup.com/2/rsvps?offset=0&format=json&sig=e3913a7a676b7182d48e3e990f2cc26c211bd5bd&event_id=226276326&photo-host=public&page=20&fields=&sig_id=99027442&order=event&desc=False",
    "lon": "",
    "title": "Meetup RSVPs v2"
  }
}
